{
  "uid" : "98d3104e051c652961429bf95fa0b5d6",
  "name" : "suites",
  "children" : [ {
    "name" : "Default Suite",
    "children" : [ {
      "name" : "Microservices",
      "children" : [ {
        "name" : "Auth",
        "children" : [ {
          "name" : "authorisationCorrect",
          "uid" : "e90f42750df3db26",
          "parentUid" : "aaec033c40685400f1b87701f41360fc",
          "status" : "passed",
          "time" : {
            "start" : 1531225501608,
            "stop" : 1531225502465,
            "duration" : 857
          },
          "flaky" : false,
          "parameters" : [ ]
        }, {
          "name" : "listSession",
          "uid" : "9899d497c6743dff",
          "parentUid" : "aaec033c40685400f1b87701f41360fc",
          "status" : "passed",
          "time" : {
            "start" : 1531225502513,
            "stop" : 1531225502576,
            "duration" : 63
          },
          "flaky" : false,
          "parameters" : [ ]
        }, {
          "name" : "deleteSession",
          "uid" : "e6092fda86fd0ade",
          "parentUid" : "aaec033c40685400f1b87701f41360fc",
          "status" : "passed",
          "time" : {
            "start" : 1531225502582,
            "stop" : 1531225502648,
            "duration" : 66
          },
          "flaky" : false,
          "parameters" : [ ]
        } ],
        "uid" : "aaec033c40685400f1b87701f41360fc"
      } ],
      "uid" : "ed01f85e764919669edd34d15882a0b5"
    } ],
    "uid" : "8399274b4bb69ec8699907dd6ef7de4e"
  }, {
    "name" : "Surefire suite",
    "children" : [ {
      "name" : "Surefire test",
      "children" : [ {
        "name" : "AuthorisationTest",
        "children" : [ {
          "name" : "authorisationCorrect",
          "uid" : "661d59e81d171124",
          "parentUid" : "da23965105d74f3c67765e9be2a2f6bb",
          "status" : "passed",
          "time" : {
            "start" : 1531234906215,
            "stop" : 1531234906862,
            "duration" : 647
          },
          "flaky" : false,
          "parameters" : [ ]
        }, {
          "name" : "listSession",
          "uid" : "1a8599a5cc01b920",
          "parentUid" : "da23965105d74f3c67765e9be2a2f6bb",
          "status" : "passed",
          "time" : {
            "start" : 1531234906911,
            "stop" : 1531234906962,
            "duration" : 51
          },
          "flaky" : false,
          "parameters" : [ ]
        }, {
          "name" : "deleteSession",
          "uid" : "2d7978b75514404a",
          "parentUid" : "da23965105d74f3c67765e9be2a2f6bb",
          "status" : "passed",
          "time" : {
            "start" : 1531234906968,
            "stop" : 1531234907020,
            "duration" : 52
          },
          "flaky" : false,
          "parameters" : [ ]
        }, {
          "name" : "authorisationCorrect",
          "uid" : "eb8ca67ac224d811",
          "parentUid" : "da23965105d74f3c67765e9be2a2f6bb",
          "status" : "passed",
          "time" : {
            "start" : 1531235941355,
            "stop" : 1531235942040,
            "duration" : 685
          },
          "flaky" : false,
          "parameters" : [ ]
        }, {
          "name" : "listSession",
          "uid" : "78930003ad2a3f1b",
          "parentUid" : "da23965105d74f3c67765e9be2a2f6bb",
          "status" : "passed",
          "time" : {
            "start" : 1531235942087,
            "stop" : 1531235942141,
            "duration" : 54
          },
          "flaky" : false,
          "parameters" : [ ]
        }, {
          "name" : "deleteSession",
          "uid" : "151d68a7aecfe758",
          "parentUid" : "da23965105d74f3c67765e9be2a2f6bb",
          "status" : "passed",
          "time" : {
            "start" : 1531235942146,
            "stop" : 1531235942198,
            "duration" : 52
          },
          "flaky" : false,
          "parameters" : [ ]
        } ],
        "uid" : "da23965105d74f3c67765e9be2a2f6bb"
      } ],
      "uid" : "1fcb2e6ec8e5b5e8a1f2a70b87c80b24"
    } ],
    "uid" : "940a09faf31371a51747026c9d178f0a"
  } ]
}